# --> Including file '/workspace/build/REC/REC_HEAD/Rec/LumiAlgs/job/LumiAlgsConfTest.py'
# <-- End of file '/workspace/build/REC/REC_HEAD/Rec/LumiAlgs/job/LumiAlgsConfTest.py'
# applying configuration of LHCbApp
# /***** User LHCbApp/LHCbApp ************************************************************************
# |-Persistency    = None
# |-XMLSummary     = None
# |-OutputLevel    = 3
# |-LocalDataTypes = []  (default: [])
# |-DataType       = '2012'
# |-TimeStamp      = False
# |-ThreadPoolSize = 8
# |-SkipEvents     = 0
# |-EvtMax         = 100  (default: -1)
# |-CondDBtag      = ''
# |-DQFLAGStag     = ''
# |-IgnoreDQFlags  = True
# |-Monitors       = []  (default: [])
# |-Detectors      = []  (default: [])
# |-Scheduler      = 'AvalancheScheduler'
# |-EnableHive     = False
# |-Simulation     = False
# |-DDDBtag        = ''
# |-OnlineMode     = False
# \----- (End of User LHCbApp/LHCbApp) ---------------------------------------------------------------
# applying configuration of LumiAlgsConf
# /***** User LumiAlgsConf/LumiAlgsConf **************************************************************
# |-UseLumiLow        = False
# |-ForceFullSequence = False
# |-InputType         = 'MDF'
# |-DataType          = '2012'
# |-SetFSRStatus      = ''
# |-OutputLevel       = 1  (default: 3)
# |-MergeFSR          = False
# |-BXTypes           = ['NoBeam', 'BeamCrossing', 'Beam1', 'Beam2']
# |                   (default: ['NoBeam', 'BeamCrossing', 'Beam1', 'Beam2'])
# |-Simulation        = False
# |-Context           = 'Offline'
# |-LumiSequencer     = GaudiSequencer('LumiSequence')  (default: None)
# |-IgnoreDQFlags     = False
# \----- (End of User LumiAlgsConf/LumiAlgsConf) -----------------------------------------------------
# skipping configuration of XMLSummary
# applying configuration of DDDBConf
# WARNING: Using default tag dddb-20190206-2 for partition DDDB
# WARNING: Using default tag cond-20150409-1 for partition LHCBCOND
# WARNING: Using default tag <latest:2012> for partition DQFLAGS
# /***** User DDDBConf/DDDBConf **********************************************************************
# |-IgnoreHeartBeat     = False
# |-EnableRunStampCheck = True
# |-InitialTime         = 'Safe'
# |-Simulation          = False
# |-DataType            = '2012'
# |-DbRoot              = 'git:/lhcb.xml'
# |-OnlineMode          = False
# \----- (End of User DDDBConf/DDDBConf) -------------------------------------------------------------
# applying configuration of CondDB
# /***** User CondDB/CondDB **************************************************************************
# |-EnableRunChangeHandler     = False
# |-LocalTags                  = {}  (default: {})
# |-IgnoreHeartBeat            = False
# |-Tags                       = {'DDDB': 'dddb-20190206-2', 'DQFLAGS': 'dq-20140822', 'LHCBCOND': 'cond-20150409-1'}
# |                            (default: {})
# |-EnableRunStampCheck        = True
# |-Simulation                 = False
# |-Upgrade                    = False
# |-AllLocalTagsByDataType     = []  (default: [])
# |-Online                     = False
# |-QueryGranularity           = 0
# |-Overlays                   = []  (default: [])
# |-LatestGlobalTagByDataTypes = []  (default: [])
# |-LatestGlobalTagByDataType  = ''
# |-RunChangeHandlerConditions = {'online_%d.xml': ['Conditions/Online/LHCb/Magnet/Set', 'Conditions/Online/Velo/MotionSystem', 'Conditions/Online/LHCb/Lumi/LumiSettings', 'Conditions/Online/LHCb/LHCFillingScheme', 'Conditions/Online/LHCb/RunParameters', 'Conditions/Online/Rich1/R1HltGasParameters', 'Conditions/Online/Rich2/R2HltGasParameters']}
# |                            (default: {'online_%d.xml': ['Conditions/Online/LHCb/Magnet/Set', 'Conditions/Online/Velo/MotionSystem', 'Conditions/Online/LHCb/Lumi/LumiSettings', 'Conditions/Online/LHCb/LHCFillingScheme', 'Conditions/Online/LHCb/RunParameters', 'Conditions/Online/Rich1/R1HltGasParameters', 'Conditions/Online/Rich2/R2HltGasParameters']})
# \----- (End of User CondDB/CondDB) -----------------------------------------------------------------
ApplicationMgr    SUCCESS
====================================================================================================================================
                                                   Welcome to Rec version HEAD
                                          running on lbbuild33.cern.ch on Thu May 16 05:46:10 2019
====================================================================================================================================
ApplicationMgr       INFO Application Manager Configured successfully
ToolSvc.GitDDDB      INFO opening Git repository '/cvmfs/lhcb.cern.ch/lib/lhcb/git-conddb/DDDB.git'
ToolSvc.GitDDDB      INFO using commit 'dddb-20190206-2' corresponding to f932d31ad5fc983568505891a141c8a355958465
ToolSvc.GitLHCB...   INFO opening Git repository '/cvmfs/lhcb.cern.ch/lib/lhcb/git-conddb/LHCBCOND.git'
ToolSvc.GitLHCB...   INFO using commit 'cond-20150409-1' corresponding to 862558522625bc8e913636791ef778223447c38e
ToolSvc.GitONLINE    INFO opening Git repository '/cvmfs/lhcb.cern.ch/lib/lhcb/git-conddb/ONLINE.git'
ToolSvc.GitONLINE    INFO using commit 'HEAD' corresponding to b2d37819e46660e2d9781150425c636b20de420e
ToolSvc.GitDQFLAGS   INFO opening Git repository '/cvmfs/lhcb.cern.ch/lib/lhcb/git-conddb/DQFLAGS.git'
ToolSvc.GitDQFLAGS   INFO using commit 'dq-20140822' corresponding to c8cd1b53fd9964a2f7f6de2c9a85c1982a286f94
DetectorPersist...   INFO Added successfully Conversion service:XmlCnvSvc
DetectorDataSvc   SUCCESS Detector description database: git:/lhcb.xml
LumiSequence         INFO OR Member list: GaudiSequencer/LumiNoBeamSeq, GaudiSequencer/LumiBeamCrossingSeq, GaudiSequencer/LumiBeam1Seq, GaudiSequencer/LumiBeam2Seq, GaudiSequencer/TimeSpanSeq, EventAccounting/EventAccount
RndmGenSvc.Engine    INFO Generator engine type:CLHEP::RanluxEngine
RndmGenSvc.Engine    INFO Current Seed:1234567 Luxury:3
RndmGenSvc           INFO Using Random engine:HepRndm::Engine<CLHEP::RanluxEngine>
ToolSvc.Sequenc...   INFO This machine has a speed about   2.86 times the speed of a 2.8 GHz Xeon.
LumiNoBeamSeq        INFO Member list: LoKi::ODINFilter/FilterNoBeam, HltLumiSummaryDecoder, FilterOnLumiSummary/LumiFilter, LumiAccounting/LumiCountNoBeam
LumiFilter          DEBUG Property update for OutputLevel : new value = 1
LumiFilter        VERBOSE ServiceLocatorHelper::service: found service AlgContextSvc
LumiFilter        VERBOSE ServiceLocatorHelper::service: found service EventDataSvc
LumiFilter        VERBOSE ServiceLocatorHelper::service: found service TimelineSvc
LumiFilter        VERBOSE ServiceLocatorHelper::service: found service EventDataSvc
LumiFilter          DEBUG Initialize base class GaudiCommon<Algorithm>
LumiFilter          DEBUG could not locate CounterSummarySvc, no counter summary will be made
LumiFilter          DEBUG List of ALL properties of FilterOnLumiSummary/LumiFilter  #properties = 40
LumiFilter          DEBUG Property ['Name': Value] =  'CounterName':Random
LumiFilter          DEBUG Property ['Name': Value] =  'ValueName':RandomMethod
LumiFilter          DEBUG Property ['Name': Value] =  'InputDataContainer':Hlt/LumiSummary
LumiFilter          DEBUG Property ['Name': Value] =  'RequireObjects':[  ]
LumiFilter          DEBUG Property ['Name': Value] =  'VetoObjects':[  ]
LumiFilter          DEBUG Property ['Name': Value] =  'StatEntityList':[  ]
LumiFilter          DEBUG Property ['Name': Value] =  'CounterList':[ '.*' ]
LumiFilter          DEBUG Property ['Name': Value] =  'UseEfficiencyRowFormat':True
LumiFilter          DEBUG Property ['Name': Value] =  'EfficiencyRowFormat': |*%|-48.48s|%|50t||%|10d| |%|11.5g| |(%|#9.6g| +- %|-#9.6g|)%%|   -------   |   -------   |
LumiFilter          DEBUG Property ['Name': Value] =  'RegularRowFormat': | %|-48.48s|%|50t||%|10d| |%|11.7g| |%|#11.5g| |%|#11.5g| |%|#12.5g| |%|#12.5g| |
LumiFilter          DEBUG Property ['Name': Value] =  'StatTableHeader': |    Counter                                      |     #     |    sum     | mean/eff^* | rms/err^*  |     min     |     max     |
LumiFilter          DEBUG Property ['Name': Value] =  'Context':
LumiFilter          DEBUG Property ['Name': Value] =  'TypePrint':True
LumiFilter          DEBUG Property ['Name': Value] =  'PrintEmptyCounters':False
LumiFilter          DEBUG Property ['Name': Value] =  'StatPrint':True
LumiFilter          DEBUG Property ['Name': Value] =  'PropertiesPrint':False
LumiFilter          DEBUG Property ['Name': Value] =  'ErrorsPrint':True
LumiFilter          DEBUG Property ['Name': Value] =  'RootInTES':
LumiFilter          DEBUG Property ['Name': Value] =  'FilterCircularDependencies':True
LumiFilter          DEBUG Property ['Name': Value] =  'IsIOBound':False
LumiFilter          DEBUG Property ['Name': Value] =  'NeededResources':[  ]
LumiFilter          DEBUG Property ['Name': Value] =  'Cardinality':0
LumiFilter          DEBUG Property ['Name': Value] =  'RegisterForContextService':True
LumiFilter          DEBUG Property ['Name': Value] =  'MonitorService':MonitorSvc
LumiFilter          DEBUG Property ['Name': Value] =  'Timeline':False
LumiFilter          DEBUG Property ['Name': Value] =  'AuditStop':False
LumiFilter          DEBUG Property ['Name': Value] =  'AuditStart':False
LumiFilter          DEBUG Property ['Name': Value] =  'AuditEndRun':False
LumiFilter          DEBUG Property ['Name': Value] =  'AuditBeginRun':False
LumiFilter          DEBUG Property ['Name': Value] =  'AuditFinalize':False
LumiFilter          DEBUG Property ['Name': Value] =  'AuditExecute':False
LumiFilter          DEBUG Property ['Name': Value] =  'AuditRestart':False
LumiFilter          DEBUG Property ['Name': Value] =  'AuditReinitialize':False
LumiFilter          DEBUG Property ['Name': Value] =  'AuditInitialize':False
LumiFilter          DEBUG Property ['Name': Value] =  'AuditAlgorithms':False
LumiFilter          DEBUG Property ['Name': Value] =  'ErrorMax':1
LumiFilter          DEBUG Property ['Name': Value] =  'Enable':True
LumiFilter          DEBUG Property ['Name': Value] =  'OutputLevel':1
LumiFilter          DEBUG Property ['Name': Value] =  'ExtraOutputs':[]
LumiFilter          DEBUG Property ['Name': Value] =  'ExtraInputs':[]
LumiFilter          DEBUG ==> Initialize
LumiFilter          DEBUG CounterName:       Random ValueName:         RandomMethod
LumiFilter        VERBOSE ServiceLocatorHelper::service: found service AlgExecStateSvc
LumiFilter          DEBUG input handles: 1
LumiFilter          DEBUG output handles: 0
LumiFilter          DEBUG Changing Hlt/LumiSummary to /Event/Hlt/LumiSummary
LumiFilter          DEBUG Data Deps for LumiFilter
  + INPUT  '/Event/Hlt/LumiSummary'
LumiCountNoBeam     DEBUG Property update for OutputLevel : new value = 1
LumiCountNoBeam   VERBOSE ServiceLocatorHelper::service: found service AlgContextSvc
LumiCountNoBeam   VERBOSE ServiceLocatorHelper::service: found service EventDataSvc
LumiCountNoBeam   VERBOSE ServiceLocatorHelper::service: found service TimelineSvc
LumiCountNoBeam   VERBOSE ServiceLocatorHelper::service: found service EventDataSvc
LumiCountNoBeam     DEBUG Initialize base class GaudiCommon<Algorithm>
LumiCountNoBeam     DEBUG could not locate CounterSummarySvc, no counter summary will be made
LumiCountNoBeam     DEBUG List of ALL properties of LumiAccounting/LumiCountNoBeam  #properties = 41
LumiCountNoBeam     DEBUG Property ['Name': Value] =  'OutputDataContainer':/FileRecords/LumiFSRNoBeam
LumiCountNoBeam     DEBUG Property ['Name': Value] =  'RawEventLocation':DAQ/RawEvent
LumiCountNoBeam     DEBUG Property ['Name': Value] =  'InputDataContainer':Hlt/LumiSummary
LumiCountNoBeam     DEBUG Property ['Name': Value] =  'ODINLocation':DAQ/ODIN
LumiCountNoBeam     DEBUG Property ['Name': Value] =  'RequireObjects':[  ]
LumiCountNoBeam     DEBUG Property ['Name': Value] =  'VetoObjects':[  ]
LumiCountNoBeam     DEBUG Property ['Name': Value] =  'StatEntityList':[  ]
LumiCountNoBeam     DEBUG Property ['Name': Value] =  'CounterList':[ '.*' ]
LumiCountNoBeam     DEBUG Property ['Name': Value] =  'UseEfficiencyRowFormat':True
LumiCountNoBeam     DEBUG Property ['Name': Value] =  'EfficiencyRowFormat': |*%|-48.48s|%|50t||%|10d| |%|11.5g| |(%|#9.6g| +- %|-#9.6g|)%%|   -------   |   -------   |
LumiCountNoBeam     DEBUG Property ['Name': Value] =  'RegularRowFormat': | %|-48.48s|%|50t||%|10d| |%|11.7g| |%|#11.5g| |%|#11.5g| |%|#12.5g| |%|#12.5g| |
LumiCountNoBeam     DEBUG Property ['Name': Value] =  'StatTableHeader': |    Counter                                      |     #     |    sum     | mean/eff^* | rms/err^*  |     min     |     max     |
LumiCountNoBeam     DEBUG Property ['Name': Value] =  'Context':
LumiCountNoBeam     DEBUG Property ['Name': Value] =  'TypePrint':True
LumiCountNoBeam     DEBUG Property ['Name': Value] =  'PrintEmptyCounters':False
LumiCountNoBeam     DEBUG Property ['Name': Value] =  'StatPrint':True
LumiCountNoBeam     DEBUG Property ['Name': Value] =  'PropertiesPrint':False
LumiCountNoBeam     DEBUG Property ['Name': Value] =  'ErrorsPrint':True
LumiCountNoBeam     DEBUG Property ['Name': Value] =  'RootInTES':
LumiCountNoBeam     DEBUG Property ['Name': Value] =  'FilterCircularDependencies':True
LumiCountNoBeam     DEBUG Property ['Name': Value] =  'IsIOBound':False
LumiCountNoBeam     DEBUG Property ['Name': Value] =  'NeededResources':[  ]
LumiCountNoBeam     DEBUG Property ['Name': Value] =  'Cardinality':0
LumiCountNoBeam     DEBUG Property ['Name': Value] =  'RegisterForContextService':True
LumiCountNoBeam     DEBUG Property ['Name': Value] =  'MonitorService':MonitorSvc
LumiCountNoBeam     DEBUG Property ['Name': Value] =  'Timeline':False
LumiCountNoBeam     DEBUG Property ['Name': Value] =  'AuditStop':False
LumiCountNoBeam     DEBUG Property ['Name': Value] =  'AuditStart':False
LumiCountNoBeam     DEBUG Property ['Name': Value] =  'AuditEndRun':False
LumiCountNoBeam     DEBUG Property ['Name': Value] =  'AuditBeginRun':False
LumiCountNoBeam     DEBUG Property ['Name': Value] =  'AuditFinalize':False
LumiCountNoBeam     DEBUG Property ['Name': Value] =  'AuditExecute':False
LumiCountNoBeam     DEBUG Property ['Name': Value] =  'AuditRestart':False
LumiCountNoBeam     DEBUG Property ['Name': Value] =  'AuditReinitialize':False
LumiCountNoBeam     DEBUG Property ['Name': Value] =  'AuditInitialize':False
LumiCountNoBeam     DEBUG Property ['Name': Value] =  'AuditAlgorithms':False
LumiCountNoBeam     DEBUG Property ['Name': Value] =  'ErrorMax':1
LumiCountNoBeam     DEBUG Property ['Name': Value] =  'Enable':True
LumiCountNoBeam     DEBUG Property ['Name': Value] =  'OutputLevel':1
LumiCountNoBeam     DEBUG Property ['Name': Value] =  'ExtraOutputs':[]
LumiCountNoBeam     DEBUG Property ['Name': Value] =  'ExtraInputs':[]
LumiCountNoBeam     DEBUG ==> Initialize
LumiCountNoBeam   VERBOSE ServiceLocatorHelper::service: found service FileRecordDataSvc
LumiCountNoBeam     DEBUG LumiAccounting:: The object of type 'KeyedContainer<LHCb::LumiFSR,Containers::KeyedObjectManager<Containers::hashmap> >' is registered in TS at address '/FileRecords/LumiFSRNoBeam'
LumiCountNoBeam   VERBOSE ServiceLocatorHelper::service: found service DetectorDataSvc
LumiCountNoBeam     DEBUG ==> Register DB
LumiCountNoBeam   VERBOSE ServiceLocatorHelper::service: found service AlgExecStateSvc
LumiCountNoBeam     DEBUG input handles: 3
LumiCountNoBeam     DEBUG output handles: 0
LumiCountNoBeam     DEBUG Changing DAQ/RawEvent to /Event/DAQ/RawEvent
LumiCountNoBeam     DEBUG Changing DAQ/ODIN to /Event/DAQ/ODIN
LumiCountNoBeam     DEBUG Changing Hlt/LumiSummary to /Event/Hlt/LumiSummary
LumiCountNoBeam     DEBUG Data Deps for LumiCountNoBeam
  + INPUT  '/Event/DAQ/ODIN'
  + INPUT  '/Event/DAQ/RawEvent'
  + INPUT  '/Event/Hlt/LumiSummary'
LumiBeamCrossin...   INFO Member list: LoKi::ODINFilter/FilterBeamCrossing, HltLumiSummaryDecoder, FilterOnLumiSummary/LumiFilter, LumiAccounting/LumiCountBeamCrossing
LumiCountBeamCr...  DEBUG Property update for OutputLevel : new value = 1
LumiCountBeamCr...VERBOSE ServiceLocatorHelper::service: found service AlgContextSvc
LumiCountBeamCr...VERBOSE ServiceLocatorHelper::service: found service EventDataSvc
LumiCountBeamCr...VERBOSE ServiceLocatorHelper::service: found service TimelineSvc
LumiCountBeamCr...VERBOSE ServiceLocatorHelper::service: found service EventDataSvc
LumiCountBeamCr...  DEBUG Initialize base class GaudiCommon<Algorithm>
LumiCountBeamCr...  DEBUG could not locate CounterSummarySvc, no counter summary will be made
LumiCountBeamCr...  DEBUG List of ALL properties of LumiAccounting/LumiCountBeamCrossing  #properties = 41
LumiCountBeamCr...  DEBUG Property ['Name': Value] =  'OutputDataContainer':/FileRecords/LumiFSRBeamCrossing
LumiCountBeamCr...  DEBUG Property ['Name': Value] =  'RawEventLocation':DAQ/RawEvent
LumiCountBeamCr...  DEBUG Property ['Name': Value] =  'InputDataContainer':Hlt/LumiSummary
LumiCountBeamCr...  DEBUG Property ['Name': Value] =  'ODINLocation':DAQ/ODIN
LumiCountBeamCr...  DEBUG Property ['Name': Value] =  'RequireObjects':[  ]
LumiCountBeamCr...  DEBUG Property ['Name': Value] =  'VetoObjects':[  ]
LumiCountBeamCr...  DEBUG Property ['Name': Value] =  'StatEntityList':[  ]
LumiCountBeamCr...  DEBUG Property ['Name': Value] =  'CounterList':[ '.*' ]
LumiCountBeamCr...  DEBUG Property ['Name': Value] =  'UseEfficiencyRowFormat':True
LumiCountBeamCr...  DEBUG Property ['Name': Value] =  'EfficiencyRowFormat': |*%|-48.48s|%|50t||%|10d| |%|11.5g| |(%|#9.6g| +- %|-#9.6g|)%%|   -------   |   -------   |
LumiCountBeamCr...  DEBUG Property ['Name': Value] =  'RegularRowFormat': | %|-48.48s|%|50t||%|10d| |%|11.7g| |%|#11.5g| |%|#11.5g| |%|#12.5g| |%|#12.5g| |
LumiCountBeamCr...  DEBUG Property ['Name': Value] =  'StatTableHeader': |    Counter                                      |     #     |    sum     | mean/eff^* | rms/err^*  |     min     |     max     |
LumiCountBeamCr...  DEBUG Property ['Name': Value] =  'Context':
LumiCountBeamCr...  DEBUG Property ['Name': Value] =  'TypePrint':True
LumiCountBeamCr...  DEBUG Property ['Name': Value] =  'PrintEmptyCounters':False
LumiCountBeamCr...  DEBUG Property ['Name': Value] =  'StatPrint':True
LumiCountBeamCr...  DEBUG Property ['Name': Value] =  'PropertiesPrint':False
LumiCountBeamCr...  DEBUG Property ['Name': Value] =  'ErrorsPrint':True
LumiCountBeamCr...  DEBUG Property ['Name': Value] =  'RootInTES':
LumiCountBeamCr...  DEBUG Property ['Name': Value] =  'FilterCircularDependencies':True
LumiCountBeamCr...  DEBUG Property ['Name': Value] =  'IsIOBound':False
LumiCountBeamCr...  DEBUG Property ['Name': Value] =  'NeededResources':[  ]
LumiCountBeamCr...  DEBUG Property ['Name': Value] =  'Cardinality':0
LumiCountBeamCr...  DEBUG Property ['Name': Value] =  'RegisterForContextService':True
LumiCountBeamCr...  DEBUG Property ['Name': Value] =  'MonitorService':MonitorSvc
LumiCountBeamCr...  DEBUG Property ['Name': Value] =  'Timeline':False
LumiCountBeamCr...  DEBUG Property ['Name': Value] =  'AuditStop':False
LumiCountBeamCr...  DEBUG Property ['Name': Value] =  'AuditStart':False
LumiCountBeamCr...  DEBUG Property ['Name': Value] =  'AuditEndRun':False
LumiCountBeamCr...  DEBUG Property ['Name': Value] =  'AuditBeginRun':False
LumiCountBeamCr...  DEBUG Property ['Name': Value] =  'AuditFinalize':False
LumiCountBeamCr...  DEBUG Property ['Name': Value] =  'AuditExecute':False
LumiCountBeamCr...  DEBUG Property ['Name': Value] =  'AuditRestart':False
LumiCountBeamCr...  DEBUG Property ['Name': Value] =  'AuditReinitialize':False
LumiCountBeamCr...  DEBUG Property ['Name': Value] =  'AuditInitialize':False
LumiCountBeamCr...  DEBUG Property ['Name': Value] =  'AuditAlgorithms':False
LumiCountBeamCr...  DEBUG Property ['Name': Value] =  'ErrorMax':1
LumiCountBeamCr...  DEBUG Property ['Name': Value] =  'Enable':True
LumiCountBeamCr...  DEBUG Property ['Name': Value] =  'OutputLevel':1
LumiCountBeamCr...  DEBUG Property ['Name': Value] =  'ExtraOutputs':[]
LumiCountBeamCr...  DEBUG Property ['Name': Value] =  'ExtraInputs':[]
LumiCountBeamCr...  DEBUG ==> Initialize
LumiCountBeamCr...VERBOSE ServiceLocatorHelper::service: found service FileRecordDataSvc
LumiCountBeamCr...  DEBUG LumiAccounting:: The object of type 'KeyedContainer<LHCb::LumiFSR,Containers::KeyedObjectManager<Containers::hashmap> >' is registered in TS at address '/FileRecords/LumiFSRBeamCrossing'
LumiCountBeamCr...VERBOSE ServiceLocatorHelper::service: found service DetectorDataSvc
LumiCountBeamCr...  DEBUG ==> Register DB
LumiCountBeamCr...VERBOSE ServiceLocatorHelper::service: found service AlgExecStateSvc
LumiCountBeamCr...  DEBUG input handles: 3
LumiCountBeamCr...  DEBUG output handles: 0
LumiCountBeamCr...  DEBUG Changing DAQ/RawEvent to /Event/DAQ/RawEvent
LumiCountBeamCr...  DEBUG Changing DAQ/ODIN to /Event/DAQ/ODIN
LumiCountBeamCr...  DEBUG Changing Hlt/LumiSummary to /Event/Hlt/LumiSummary
LumiCountBeamCr...  DEBUG Data Deps for LumiCountBeamCrossing
  + INPUT  '/Event/DAQ/ODIN'
  + INPUT  '/Event/DAQ/RawEvent'
  + INPUT  '/Event/Hlt/LumiSummary'
LumiBeam1Seq         INFO Member list: LoKi::ODINFilter/FilterBeam1, HltLumiSummaryDecoder, FilterOnLumiSummary/LumiFilter, FilterFillingScheme/FillingBeam1, LumiAccounting/LumiCountBeam1
FillingBeam1        DEBUG Property update for OutputLevel : new value = 1
FillingBeam1      VERBOSE ServiceLocatorHelper::service: found service AlgContextSvc
FillingBeam1      VERBOSE ServiceLocatorHelper::service: found service EventDataSvc
FillingBeam1      VERBOSE ServiceLocatorHelper::service: found service TimelineSvc
FillingBeam1      VERBOSE ServiceLocatorHelper::service: found service EventDataSvc
FillingBeam1        DEBUG Initialize base class GaudiCommon<Algorithm>
FillingBeam1        DEBUG could not locate CounterSummarySvc, no counter summary will be made
FillingBeam1        DEBUG List of ALL properties of FilterFillingScheme/FillingBeam1  #properties = 41
FillingBeam1        DEBUG Property ['Name': Value] =  'BXOffset':-1
FillingBeam1        DEBUG Property ['Name': Value] =  'MagnetState':ALL
FillingBeam1        DEBUG Property ['Name': Value] =  'Beam':2
FillingBeam1        DEBUG Property ['Name': Value] =  'ODINLocation':DAQ/ODIN
FillingBeam1        DEBUG Property ['Name': Value] =  'RequireObjects':[  ]
FillingBeam1        DEBUG Property ['Name': Value] =  'VetoObjects':[  ]
FillingBeam1        DEBUG Property ['Name': Value] =  'StatEntityList':[  ]
FillingBeam1        DEBUG Property ['Name': Value] =  'CounterList':[ '.*' ]
FillingBeam1        DEBUG Property ['Name': Value] =  'UseEfficiencyRowFormat':True
FillingBeam1        DEBUG Property ['Name': Value] =  'EfficiencyRowFormat': |*%|-48.48s|%|50t||%|10d| |%|11.5g| |(%|#9.6g| +- %|-#9.6g|)%%|   -------   |   -------   |
FillingBeam1        DEBUG Property ['Name': Value] =  'RegularRowFormat': | %|-48.48s|%|50t||%|10d| |%|11.7g| |%|#11.5g| |%|#11.5g| |%|#12.5g| |%|#12.5g| |
FillingBeam1        DEBUG Property ['Name': Value] =  'StatTableHeader': |    Counter                                      |     #     |    sum     | mean/eff^* | rms/err^*  |     min     |     max     |
FillingBeam1        DEBUG Property ['Name': Value] =  'Context':
FillingBeam1        DEBUG Property ['Name': Value] =  'TypePrint':True
FillingBeam1        DEBUG Property ['Name': Value] =  'PrintEmptyCounters':False
FillingBeam1        DEBUG Property ['Name': Value] =  'StatPrint':True
FillingBeam1        DEBUG Property ['Name': Value] =  'PropertiesPrint':False
FillingBeam1        DEBUG Property ['Name': Value] =  'ErrorsPrint':True
FillingBeam1        DEBUG Property ['Name': Value] =  'RootInTES':
FillingBeam1        DEBUG Property ['Name': Value] =  'FilterCircularDependencies':True
FillingBeam1        DEBUG Property ['Name': Value] =  'IsIOBound':False
FillingBeam1        DEBUG Property ['Name': Value] =  'NeededResources':[  ]
FillingBeam1        DEBUG Property ['Name': Value] =  'Cardinality':0
FillingBeam1        DEBUG Property ['Name': Value] =  'RegisterForContextService':True
FillingBeam1        DEBUG Property ['Name': Value] =  'MonitorService':MonitorSvc
FillingBeam1        DEBUG Property ['Name': Value] =  'Timeline':False
FillingBeam1        DEBUG Property ['Name': Value] =  'AuditStop':False
FillingBeam1        DEBUG Property ['Name': Value] =  'AuditStart':False
FillingBeam1        DEBUG Property ['Name': Value] =  'AuditEndRun':False
FillingBeam1        DEBUG Property ['Name': Value] =  'AuditBeginRun':False
FillingBeam1        DEBUG Property ['Name': Value] =  'AuditFinalize':False
FillingBeam1        DEBUG Property ['Name': Value] =  'AuditExecute':False
FillingBeam1        DEBUG Property ['Name': Value] =  'AuditRestart':False
FillingBeam1        DEBUG Property ['Name': Value] =  'AuditReinitialize':False
FillingBeam1        DEBUG Property ['Name': Value] =  'AuditInitialize':False
FillingBeam1        DEBUG Property ['Name': Value] =  'AuditAlgorithms':False
FillingBeam1        DEBUG Property ['Name': Value] =  'ErrorMax':1
FillingBeam1        DEBUG Property ['Name': Value] =  'Enable':True
FillingBeam1        DEBUG Property ['Name': Value] =  'OutputLevel':1
FillingBeam1        DEBUG Property ['Name': Value] =  'ExtraOutputs':[]
FillingBeam1        DEBUG Property ['Name': Value] =  'ExtraInputs':[]
FillingBeam1        DEBUG ==> Initialize
FillingBeam1      VERBOSE ServiceLocatorHelper::service: found service DetectorDataSvc
FillingBeam1        DEBUG ==> Register DB
FillingBeam1        DEBUG Conditions/Online/LHCb/LHCFillingScheme
FillingBeam1        DEBUG Conditions/Online/LHCb/Magnet/Measured
FillingBeam1      VERBOSE ServiceLocatorHelper::service: found service AlgExecStateSvc
FillingBeam1        DEBUG input handles: 1
FillingBeam1        DEBUG output handles: 0
FillingBeam1        DEBUG Changing DAQ/ODIN to /Event/DAQ/ODIN
FillingBeam1        DEBUG Data Deps for FillingBeam1
  + INPUT  '/Event/DAQ/ODIN'
LumiCountBeam1      DEBUG Property update for OutputLevel : new value = 1
LumiCountBeam1    VERBOSE ServiceLocatorHelper::service: found service AlgContextSvc
LumiCountBeam1    VERBOSE ServiceLocatorHelper::service: found service EventDataSvc
LumiCountBeam1    VERBOSE ServiceLocatorHelper::service: found service TimelineSvc
LumiCountBeam1    VERBOSE ServiceLocatorHelper::service: found service EventDataSvc
LumiCountBeam1      DEBUG Initialize base class GaudiCommon<Algorithm>
LumiCountBeam1      DEBUG could not locate CounterSummarySvc, no counter summary will be made
LumiCountBeam1      DEBUG List of ALL properties of LumiAccounting/LumiCountBeam1  #properties = 41
LumiCountBeam1      DEBUG Property ['Name': Value] =  'OutputDataContainer':/FileRecords/LumiFSRBeam1
LumiCountBeam1      DEBUG Property ['Name': Value] =  'RawEventLocation':DAQ/RawEvent
LumiCountBeam1      DEBUG Property ['Name': Value] =  'InputDataContainer':Hlt/LumiSummary
LumiCountBeam1      DEBUG Property ['Name': Value] =  'ODINLocation':DAQ/ODIN
LumiCountBeam1      DEBUG Property ['Name': Value] =  'RequireObjects':[  ]
LumiCountBeam1      DEBUG Property ['Name': Value] =  'VetoObjects':[  ]
LumiCountBeam1      DEBUG Property ['Name': Value] =  'StatEntityList':[  ]
LumiCountBeam1      DEBUG Property ['Name': Value] =  'CounterList':[ '.*' ]
LumiCountBeam1      DEBUG Property ['Name': Value] =  'UseEfficiencyRowFormat':True
LumiCountBeam1      DEBUG Property ['Name': Value] =  'EfficiencyRowFormat': |*%|-48.48s|%|50t||%|10d| |%|11.5g| |(%|#9.6g| +- %|-#9.6g|)%%|   -------   |   -------   |
LumiCountBeam1      DEBUG Property ['Name': Value] =  'RegularRowFormat': | %|-48.48s|%|50t||%|10d| |%|11.7g| |%|#11.5g| |%|#11.5g| |%|#12.5g| |%|#12.5g| |
LumiCountBeam1      DEBUG Property ['Name': Value] =  'StatTableHeader': |    Counter                                      |     #     |    sum     | mean/eff^* | rms/err^*  |     min     |     max     |
LumiCountBeam1      DEBUG Property ['Name': Value] =  'Context':
LumiCountBeam1      DEBUG Property ['Name': Value] =  'TypePrint':True
LumiCountBeam1      DEBUG Property ['Name': Value] =  'PrintEmptyCounters':False
LumiCountBeam1      DEBUG Property ['Name': Value] =  'StatPrint':True
LumiCountBeam1      DEBUG Property ['Name': Value] =  'PropertiesPrint':False
LumiCountBeam1      DEBUG Property ['Name': Value] =  'ErrorsPrint':True
LumiCountBeam1      DEBUG Property ['Name': Value] =  'RootInTES':
LumiCountBeam1      DEBUG Property ['Name': Value] =  'FilterCircularDependencies':True
LumiCountBeam1      DEBUG Property ['Name': Value] =  'IsIOBound':False
LumiCountBeam1      DEBUG Property ['Name': Value] =  'NeededResources':[  ]
LumiCountBeam1      DEBUG Property ['Name': Value] =  'Cardinality':0
LumiCountBeam1      DEBUG Property ['Name': Value] =  'RegisterForContextService':True
LumiCountBeam1      DEBUG Property ['Name': Value] =  'MonitorService':MonitorSvc
LumiCountBeam1      DEBUG Property ['Name': Value] =  'Timeline':False
LumiCountBeam1      DEBUG Property ['Name': Value] =  'AuditStop':False
LumiCountBeam1      DEBUG Property ['Name': Value] =  'AuditStart':False
LumiCountBeam1      DEBUG Property ['Name': Value] =  'AuditEndRun':False
LumiCountBeam1      DEBUG Property ['Name': Value] =  'AuditBeginRun':False
LumiCountBeam1      DEBUG Property ['Name': Value] =  'AuditFinalize':False
LumiCountBeam1      DEBUG Property ['Name': Value] =  'AuditExecute':False
LumiCountBeam1      DEBUG Property ['Name': Value] =  'AuditRestart':False
LumiCountBeam1      DEBUG Property ['Name': Value] =  'AuditReinitialize':False
LumiCountBeam1      DEBUG Property ['Name': Value] =  'AuditInitialize':False
LumiCountBeam1      DEBUG Property ['Name': Value] =  'AuditAlgorithms':False
LumiCountBeam1      DEBUG Property ['Name': Value] =  'ErrorMax':1
LumiCountBeam1      DEBUG Property ['Name': Value] =  'Enable':True
LumiCountBeam1      DEBUG Property ['Name': Value] =  'OutputLevel':1
LumiCountBeam1      DEBUG Property ['Name': Value] =  'ExtraOutputs':[]
LumiCountBeam1      DEBUG Property ['Name': Value] =  'ExtraInputs':[]
LumiCountBeam1      DEBUG ==> Initialize
LumiCountBeam1    VERBOSE ServiceLocatorHelper::service: found service FileRecordDataSvc
LumiCountBeam1      DEBUG LumiAccounting:: The object of type 'KeyedContainer<LHCb::LumiFSR,Containers::KeyedObjectManager<Containers::hashmap> >' is registered in TS at address '/FileRecords/LumiFSRBeam1'
LumiCountBeam1    VERBOSE ServiceLocatorHelper::service: found service DetectorDataSvc
LumiCountBeam1      DEBUG ==> Register DB
LumiCountBeam1    VERBOSE ServiceLocatorHelper::service: found service AlgExecStateSvc
LumiCountBeam1      DEBUG input handles: 3
LumiCountBeam1      DEBUG output handles: 0
LumiCountBeam1      DEBUG Changing DAQ/RawEvent to /Event/DAQ/RawEvent
LumiCountBeam1      DEBUG Changing DAQ/ODIN to /Event/DAQ/ODIN
LumiCountBeam1      DEBUG Changing Hlt/LumiSummary to /Event/Hlt/LumiSummary
LumiCountBeam1      DEBUG Data Deps for LumiCountBeam1
  + INPUT  '/Event/DAQ/ODIN'
  + INPUT  '/Event/DAQ/RawEvent'
  + INPUT  '/Event/Hlt/LumiSummary'
LumiBeam2Seq         INFO Member list: LoKi::ODINFilter/FilterBeam2, HltLumiSummaryDecoder, FilterOnLumiSummary/LumiFilter, FilterFillingScheme/FillingBeam2, LumiAccounting/LumiCountBeam2
FillingBeam2        DEBUG Property update for OutputLevel : new value = 1
FillingBeam2      VERBOSE ServiceLocatorHelper::service: found service AlgContextSvc
FillingBeam2      VERBOSE ServiceLocatorHelper::service: found service EventDataSvc
FillingBeam2      VERBOSE ServiceLocatorHelper::service: found service TimelineSvc
FillingBeam2      VERBOSE ServiceLocatorHelper::service: found service EventDataSvc
FillingBeam2        DEBUG Initialize base class GaudiCommon<Algorithm>
FillingBeam2        DEBUG could not locate CounterSummarySvc, no counter summary will be made
FillingBeam2        DEBUG List of ALL properties of FilterFillingScheme/FillingBeam2  #properties = 41
FillingBeam2        DEBUG Property ['Name': Value] =  'BXOffset':-1
FillingBeam2        DEBUG Property ['Name': Value] =  'MagnetState':ALL
FillingBeam2        DEBUG Property ['Name': Value] =  'Beam':1
FillingBeam2        DEBUG Property ['Name': Value] =  'ODINLocation':DAQ/ODIN
FillingBeam2        DEBUG Property ['Name': Value] =  'RequireObjects':[  ]
FillingBeam2        DEBUG Property ['Name': Value] =  'VetoObjects':[  ]
FillingBeam2        DEBUG Property ['Name': Value] =  'StatEntityList':[  ]
FillingBeam2        DEBUG Property ['Name': Value] =  'CounterList':[ '.*' ]
FillingBeam2        DEBUG Property ['Name': Value] =  'UseEfficiencyRowFormat':True
FillingBeam2        DEBUG Property ['Name': Value] =  'EfficiencyRowFormat': |*%|-48.48s|%|50t||%|10d| |%|11.5g| |(%|#9.6g| +- %|-#9.6g|)%%|   -------   |   -------   |
FillingBeam2        DEBUG Property ['Name': Value] =  'RegularRowFormat': | %|-48.48s|%|50t||%|10d| |%|11.7g| |%|#11.5g| |%|#11.5g| |%|#12.5g| |%|#12.5g| |
FillingBeam2        DEBUG Property ['Name': Value] =  'StatTableHeader': |    Counter                                      |     #     |    sum     | mean/eff^* | rms/err^*  |     min     |     max     |
FillingBeam2        DEBUG Property ['Name': Value] =  'Context':
FillingBeam2        DEBUG Property ['Name': Value] =  'TypePrint':True
FillingBeam2        DEBUG Property ['Name': Value] =  'PrintEmptyCounters':False
FillingBeam2        DEBUG Property ['Name': Value] =  'StatPrint':True
FillingBeam2        DEBUG Property ['Name': Value] =  'PropertiesPrint':False
FillingBeam2        DEBUG Property ['Name': Value] =  'ErrorsPrint':True
FillingBeam2        DEBUG Property ['Name': Value] =  'RootInTES':
FillingBeam2        DEBUG Property ['Name': Value] =  'FilterCircularDependencies':True
FillingBeam2        DEBUG Property ['Name': Value] =  'IsIOBound':False
FillingBeam2        DEBUG Property ['Name': Value] =  'NeededResources':[  ]
FillingBeam2        DEBUG Property ['Name': Value] =  'Cardinality':0
FillingBeam2        DEBUG Property ['Name': Value] =  'RegisterForContextService':True
FillingBeam2        DEBUG Property ['Name': Value] =  'MonitorService':MonitorSvc
FillingBeam2        DEBUG Property ['Name': Value] =  'Timeline':False
FillingBeam2        DEBUG Property ['Name': Value] =  'AuditStop':False
FillingBeam2        DEBUG Property ['Name': Value] =  'AuditStart':False
FillingBeam2        DEBUG Property ['Name': Value] =  'AuditEndRun':False
FillingBeam2        DEBUG Property ['Name': Value] =  'AuditBeginRun':False
FillingBeam2        DEBUG Property ['Name': Value] =  'AuditFinalize':False
FillingBeam2        DEBUG Property ['Name': Value] =  'AuditExecute':False
FillingBeam2        DEBUG Property ['Name': Value] =  'AuditRestart':False
FillingBeam2        DEBUG Property ['Name': Value] =  'AuditReinitialize':False
FillingBeam2        DEBUG Property ['Name': Value] =  'AuditInitialize':False
FillingBeam2        DEBUG Property ['Name': Value] =  'AuditAlgorithms':False
FillingBeam2        DEBUG Property ['Name': Value] =  'ErrorMax':1
FillingBeam2        DEBUG Property ['Name': Value] =  'Enable':True
FillingBeam2        DEBUG Property ['Name': Value] =  'OutputLevel':1
FillingBeam2        DEBUG Property ['Name': Value] =  'ExtraOutputs':[]
FillingBeam2        DEBUG Property ['Name': Value] =  'ExtraInputs':[]
FillingBeam2        DEBUG ==> Initialize
FillingBeam2      VERBOSE ServiceLocatorHelper::service: found service DetectorDataSvc
FillingBeam2        DEBUG ==> Register DB
FillingBeam2        DEBUG Conditions/Online/LHCb/LHCFillingScheme
FillingBeam2        DEBUG Conditions/Online/LHCb/Magnet/Measured
FillingBeam2      VERBOSE ServiceLocatorHelper::service: found service AlgExecStateSvc
FillingBeam2        DEBUG input handles: 1
FillingBeam2        DEBUG output handles: 0
FillingBeam2        DEBUG Changing DAQ/ODIN to /Event/DAQ/ODIN
FillingBeam2        DEBUG Data Deps for FillingBeam2
  + INPUT  '/Event/DAQ/ODIN'
LumiCountBeam2      DEBUG Property update for OutputLevel : new value = 1
LumiCountBeam2    VERBOSE ServiceLocatorHelper::service: found service AlgContextSvc
LumiCountBeam2    VERBOSE ServiceLocatorHelper::service: found service EventDataSvc
LumiCountBeam2    VERBOSE ServiceLocatorHelper::service: found service TimelineSvc
LumiCountBeam2    VERBOSE ServiceLocatorHelper::service: found service EventDataSvc
LumiCountBeam2      DEBUG Initialize base class GaudiCommon<Algorithm>
LumiCountBeam2      DEBUG could not locate CounterSummarySvc, no counter summary will be made
LumiCountBeam2      DEBUG List of ALL properties of LumiAccounting/LumiCountBeam2  #properties = 41
LumiCountBeam2      DEBUG Property ['Name': Value] =  'OutputDataContainer':/FileRecords/LumiFSRBeam2
LumiCountBeam2      DEBUG Property ['Name': Value] =  'RawEventLocation':DAQ/RawEvent
LumiCountBeam2      DEBUG Property ['Name': Value] =  'InputDataContainer':Hlt/LumiSummary
LumiCountBeam2      DEBUG Property ['Name': Value] =  'ODINLocation':DAQ/ODIN
LumiCountBeam2      DEBUG Property ['Name': Value] =  'RequireObjects':[  ]
LumiCountBeam2      DEBUG Property ['Name': Value] =  'VetoObjects':[  ]
LumiCountBeam2      DEBUG Property ['Name': Value] =  'StatEntityList':[  ]
LumiCountBeam2      DEBUG Property ['Name': Value] =  'CounterList':[ '.*' ]
LumiCountBeam2      DEBUG Property ['Name': Value] =  'UseEfficiencyRowFormat':True
LumiCountBeam2      DEBUG Property ['Name': Value] =  'EfficiencyRowFormat': |*%|-48.48s|%|50t||%|10d| |%|11.5g| |(%|#9.6g| +- %|-#9.6g|)%%|   -------   |   -------   |
LumiCountBeam2      DEBUG Property ['Name': Value] =  'RegularRowFormat': | %|-48.48s|%|50t||%|10d| |%|11.7g| |%|#11.5g| |%|#11.5g| |%|#12.5g| |%|#12.5g| |
LumiCountBeam2      DEBUG Property ['Name': Value] =  'StatTableHeader': |    Counter                                      |     #     |    sum     | mean/eff^* | rms/err^*  |     min     |     max     |
LumiCountBeam2      DEBUG Property ['Name': Value] =  'Context':
LumiCountBeam2      DEBUG Property ['Name': Value] =  'TypePrint':True
LumiCountBeam2      DEBUG Property ['Name': Value] =  'PrintEmptyCounters':False
LumiCountBeam2      DEBUG Property ['Name': Value] =  'StatPrint':True
LumiCountBeam2      DEBUG Property ['Name': Value] =  'PropertiesPrint':False
LumiCountBeam2      DEBUG Property ['Name': Value] =  'ErrorsPrint':True
LumiCountBeam2      DEBUG Property ['Name': Value] =  'RootInTES':
LumiCountBeam2      DEBUG Property ['Name': Value] =  'FilterCircularDependencies':True
LumiCountBeam2      DEBUG Property ['Name': Value] =  'IsIOBound':False
LumiCountBeam2      DEBUG Property ['Name': Value] =  'NeededResources':[  ]
LumiCountBeam2      DEBUG Property ['Name': Value] =  'Cardinality':0
LumiCountBeam2      DEBUG Property ['Name': Value] =  'RegisterForContextService':True
LumiCountBeam2      DEBUG Property ['Name': Value] =  'MonitorService':MonitorSvc
LumiCountBeam2      DEBUG Property ['Name': Value] =  'Timeline':False
LumiCountBeam2      DEBUG Property ['Name': Value] =  'AuditStop':False
LumiCountBeam2      DEBUG Property ['Name': Value] =  'AuditStart':False
LumiCountBeam2      DEBUG Property ['Name': Value] =  'AuditEndRun':False
LumiCountBeam2      DEBUG Property ['Name': Value] =  'AuditBeginRun':False
LumiCountBeam2      DEBUG Property ['Name': Value] =  'AuditFinalize':False
LumiCountBeam2      DEBUG Property ['Name': Value] =  'AuditExecute':False
LumiCountBeam2      DEBUG Property ['Name': Value] =  'AuditRestart':False
LumiCountBeam2      DEBUG Property ['Name': Value] =  'AuditReinitialize':False
LumiCountBeam2      DEBUG Property ['Name': Value] =  'AuditInitialize':False
LumiCountBeam2      DEBUG Property ['Name': Value] =  'AuditAlgorithms':False
LumiCountBeam2      DEBUG Property ['Name': Value] =  'ErrorMax':1
LumiCountBeam2      DEBUG Property ['Name': Value] =  'Enable':True
LumiCountBeam2      DEBUG Property ['Name': Value] =  'OutputLevel':1
LumiCountBeam2      DEBUG Property ['Name': Value] =  'ExtraOutputs':[]
LumiCountBeam2      DEBUG Property ['Name': Value] =  'ExtraInputs':[]
LumiCountBeam2      DEBUG ==> Initialize
LumiCountBeam2    VERBOSE ServiceLocatorHelper::service: found service FileRecordDataSvc
LumiCountBeam2      DEBUG LumiAccounting:: The object of type 'KeyedContainer<LHCb::LumiFSR,Containers::KeyedObjectManager<Containers::hashmap> >' is registered in TS at address '/FileRecords/LumiFSRBeam2'
LumiCountBeam2    VERBOSE ServiceLocatorHelper::service: found service DetectorDataSvc
LumiCountBeam2      DEBUG ==> Register DB
LumiCountBeam2    VERBOSE ServiceLocatorHelper::service: found service AlgExecStateSvc
LumiCountBeam2      DEBUG input handles: 3
LumiCountBeam2      DEBUG output handles: 0
LumiCountBeam2      DEBUG Changing DAQ/RawEvent to /Event/DAQ/RawEvent
LumiCountBeam2      DEBUG Changing DAQ/ODIN to /Event/DAQ/ODIN
LumiCountBeam2      DEBUG Changing Hlt/LumiSummary to /Event/Hlt/LumiSummary
LumiCountBeam2      DEBUG Data Deps for LumiCountBeam2
  + INPUT  '/Event/DAQ/ODIN'
  + INPUT  '/Event/DAQ/RawEvent'
  + INPUT  '/Event/Hlt/LumiSummary'
TimeSpanSeq          INFO Member list: LoKi::ODINFilter/TimeSpanFilter, TimeAccounting/TimeSpanAccounting
TimeSpanAccounting  DEBUG Property update for OutputLevel : new value = 1
TimeSpanAccountingVERBOSE ServiceLocatorHelper::service: found service AlgContextSvc
TimeSpanAccountingVERBOSE ServiceLocatorHelper::service: found service EventDataSvc
TimeSpanAccountingVERBOSE ServiceLocatorHelper::service: found service TimelineSvc
TimeSpanAccountingVERBOSE ServiceLocatorHelper::service: found service EventDataSvc
TimeSpanAccounting  DEBUG Initialize base class GaudiCommon<Algorithm>
TimeSpanAccounting  DEBUG could not locate CounterSummarySvc, no counter summary will be made
TimeSpanAccounting  DEBUG List of ALL properties of TimeAccounting/TimeSpanAccounting  #properties = 40
TimeSpanAccounting  DEBUG Property ['Name': Value] =  'OutputDataContainer':/FileRecords/TimeSpanFSR
TimeSpanAccounting  DEBUG Property ['Name': Value] =  'RawEventLocation':DAQ/RawEvent
TimeSpanAccounting  DEBUG Property ['Name': Value] =  'ODINLocation':DAQ/ODIN
TimeSpanAccounting  DEBUG Property ['Name': Value] =  'RequireObjects':[  ]
TimeSpanAccounting  DEBUG Property ['Name': Value] =  'VetoObjects':[  ]
TimeSpanAccounting  DEBUG Property ['Name': Value] =  'StatEntityList':[  ]
TimeSpanAccounting  DEBUG Property ['Name': Value] =  'CounterList':[ '.*' ]
TimeSpanAccounting  DEBUG Property ['Name': Value] =  'UseEfficiencyRowFormat':True
TimeSpanAccounting  DEBUG Property ['Name': Value] =  'EfficiencyRowFormat': |*%|-48.48s|%|50t||%|10d| |%|11.5g| |(%|#9.6g| +- %|-#9.6g|)%%|   -------   |   -------   |
TimeSpanAccounting  DEBUG Property ['Name': Value] =  'RegularRowFormat': | %|-48.48s|%|50t||%|10d| |%|11.7g| |%|#11.5g| |%|#11.5g| |%|#12.5g| |%|#12.5g| |
TimeSpanAccounting  DEBUG Property ['Name': Value] =  'StatTableHeader': |    Counter                                      |     #     |    sum     | mean/eff^* | rms/err^*  |     min     |     max     |
TimeSpanAccounting  DEBUG Property ['Name': Value] =  'Context':
TimeSpanAccounting  DEBUG Property ['Name': Value] =  'TypePrint':True
TimeSpanAccounting  DEBUG Property ['Name': Value] =  'PrintEmptyCounters':False
TimeSpanAccounting  DEBUG Property ['Name': Value] =  'StatPrint':True
TimeSpanAccounting  DEBUG Property ['Name': Value] =  'PropertiesPrint':False
TimeSpanAccounting  DEBUG Property ['Name': Value] =  'ErrorsPrint':True
TimeSpanAccounting  DEBUG Property ['Name': Value] =  'RootInTES':
TimeSpanAccounting  DEBUG Property ['Name': Value] =  'FilterCircularDependencies':True
TimeSpanAccounting  DEBUG Property ['Name': Value] =  'IsIOBound':False
TimeSpanAccounting  DEBUG Property ['Name': Value] =  'NeededResources':[  ]
TimeSpanAccounting  DEBUG Property ['Name': Value] =  'Cardinality':0
TimeSpanAccounting  DEBUG Property ['Name': Value] =  'RegisterForContextService':True
TimeSpanAccounting  DEBUG Property ['Name': Value] =  'MonitorService':MonitorSvc
TimeSpanAccounting  DEBUG Property ['Name': Value] =  'Timeline':False
TimeSpanAccounting  DEBUG Property ['Name': Value] =  'AuditStop':False
TimeSpanAccounting  DEBUG Property ['Name': Value] =  'AuditStart':False
TimeSpanAccounting  DEBUG Property ['Name': Value] =  'AuditEndRun':False
TimeSpanAccounting  DEBUG Property ['Name': Value] =  'AuditBeginRun':False
TimeSpanAccounting  DEBUG Property ['Name': Value] =  'AuditFinalize':False
TimeSpanAccounting  DEBUG Property ['Name': Value] =  'AuditExecute':False
TimeSpanAccounting  DEBUG Property ['Name': Value] =  'AuditRestart':False
TimeSpanAccounting  DEBUG Property ['Name': Value] =  'AuditReinitialize':False
TimeSpanAccounting  DEBUG Property ['Name': Value] =  'AuditInitialize':False
TimeSpanAccounting  DEBUG Property ['Name': Value] =  'AuditAlgorithms':False
TimeSpanAccounting  DEBUG Property ['Name': Value] =  'ErrorMax':1
TimeSpanAccounting  DEBUG Property ['Name': Value] =  'Enable':True
TimeSpanAccounting  DEBUG Property ['Name': Value] =  'OutputLevel':1
TimeSpanAccounting  DEBUG Property ['Name': Value] =  'ExtraOutputs':[]
TimeSpanAccounting  DEBUG Property ['Name': Value] =  'ExtraInputs':[]
TimeSpanAccounting  DEBUG ==> Initialize
TimeSpanAccountingVERBOSE ServiceLocatorHelper::service: found service FileRecordDataSvc
TimeSpanAccounting  DEBUG TimeAccounting:: The object of type 'KeyedContainer<LHCb::TimeSpanFSR,Containers::KeyedObjectManager<Containers::hashmap> >' is registered in TS at address '/FileRecords/TimeSpanFSR'
TimeSpanAccountingVERBOSE ServiceLocatorHelper::service: found service AlgExecStateSvc
TimeSpanAccounting  DEBUG input handles: 2
TimeSpanAccounting  DEBUG output handles: 0
TimeSpanAccounting  DEBUG Changing DAQ/RawEvent to /Event/DAQ/RawEvent
TimeSpanAccounting  DEBUG Changing DAQ/ODIN to /Event/DAQ/ODIN
TimeSpanAccounting  DEBUG Data Deps for TimeSpanAccounting
  + INPUT  '/Event/DAQ/ODIN'
  + INPUT  '/Event/DAQ/RawEvent'
EventAccount        DEBUG Property update for OutputLevel : new value = 1
EventAccount      VERBOSE ServiceLocatorHelper::service: found service AlgContextSvc
EventAccount      VERBOSE ServiceLocatorHelper::service: found service EventDataSvc
EventAccount      VERBOSE ServiceLocatorHelper::service: found service TimelineSvc
EventAccount      VERBOSE ServiceLocatorHelper::service: found service EventDataSvc
EventAccount        DEBUG Initialize base class GaudiCommon<Algorithm>
EventAccount        DEBUG could not locate CounterSummarySvc, no counter summary will be made
EventAccount        DEBUG List of ALL properties of EventAccounting/EventAccount  #properties = 40
EventAccount        DEBUG Property ['Name': Value] =  'DefaultStatus':VERIFIED
EventAccount        DEBUG Property ['Name': Value] =  'OverrideStatus':True
EventAccount        DEBUG Property ['Name': Value] =  'OutputDataContainer':/FileRecords/EventCountFSR
EventAccount        DEBUG Property ['Name': Value] =  'RequireObjects':[  ]
EventAccount        DEBUG Property ['Name': Value] =  'VetoObjects':[  ]
EventAccount        DEBUG Property ['Name': Value] =  'StatEntityList':[  ]
EventAccount        DEBUG Property ['Name': Value] =  'CounterList':[ '.*' ]
EventAccount        DEBUG Property ['Name': Value] =  'UseEfficiencyRowFormat':True
EventAccount        DEBUG Property ['Name': Value] =  'EfficiencyRowFormat': |*%|-48.48s|%|50t||%|10d| |%|11.5g| |(%|#9.6g| +- %|-#9.6g|)%%|   -------   |   -------   |
EventAccount        DEBUG Property ['Name': Value] =  'RegularRowFormat': | %|-48.48s|%|50t||%|10d| |%|11.7g| |%|#11.5g| |%|#11.5g| |%|#12.5g| |%|#12.5g| |
EventAccount        DEBUG Property ['Name': Value] =  'StatTableHeader': |    Counter                                      |     #     |    sum     | mean/eff^* | rms/err^*  |     min     |     max     |
EventAccount        DEBUG Property ['Name': Value] =  'Context':
EventAccount        DEBUG Property ['Name': Value] =  'TypePrint':True
EventAccount        DEBUG Property ['Name': Value] =  'PrintEmptyCounters':False
EventAccount        DEBUG Property ['Name': Value] =  'StatPrint':True
EventAccount        DEBUG Property ['Name': Value] =  'PropertiesPrint':False
EventAccount        DEBUG Property ['Name': Value] =  'ErrorsPrint':True
EventAccount        DEBUG Property ['Name': Value] =  'RootInTES':
EventAccount        DEBUG Property ['Name': Value] =  'FilterCircularDependencies':True
EventAccount        DEBUG Property ['Name': Value] =  'IsIOBound':False
EventAccount        DEBUG Property ['Name': Value] =  'NeededResources':[  ]
EventAccount        DEBUG Property ['Name': Value] =  'Cardinality':1
EventAccount        DEBUG Property ['Name': Value] =  'RegisterForContextService':True
EventAccount        DEBUG Property ['Name': Value] =  'MonitorService':MonitorSvc
EventAccount        DEBUG Property ['Name': Value] =  'Timeline':False
EventAccount        DEBUG Property ['Name': Value] =  'AuditStop':False
EventAccount        DEBUG Property ['Name': Value] =  'AuditStart':False
EventAccount        DEBUG Property ['Name': Value] =  'AuditEndRun':False
EventAccount        DEBUG Property ['Name': Value] =  'AuditBeginRun':False
EventAccount        DEBUG Property ['Name': Value] =  'AuditFinalize':False
EventAccount        DEBUG Property ['Name': Value] =  'AuditExecute':False
EventAccount        DEBUG Property ['Name': Value] =  'AuditRestart':False
EventAccount        DEBUG Property ['Name': Value] =  'AuditReinitialize':False
EventAccount        DEBUG Property ['Name': Value] =  'AuditInitialize':False
EventAccount        DEBUG Property ['Name': Value] =  'AuditAlgorithms':False
EventAccount        DEBUG Property ['Name': Value] =  'ErrorMax':1
EventAccount        DEBUG Property ['Name': Value] =  'Enable':True
EventAccount        DEBUG Property ['Name': Value] =  'OutputLevel':1
EventAccount        DEBUG Property ['Name': Value] =  'ExtraOutputs':[]
EventAccount        DEBUG Property ['Name': Value] =  'ExtraInputs':[]
EventAccount        DEBUG ==> Initialize
EventAccount      VERBOSE ServiceLocatorHelper::service: found service FileRecordDataSvc
EventAccount        DEBUG ==> Default status: VERIFIED
EventAccount        DEBUG EventAccounting:: The object of type 'LHCb::EventCountFSR' is registered in TS at address '/FileRecords/EventCountFSR'
EventAccount      VERBOSE ServiceLocatorHelper::service: found service IncidentSvc
EventAccount        DEBUG registered with incSvc
EventAccount      VERBOSE ServiceLocatorHelper::service: found service AlgExecStateSvc
EventAccount        DEBUG input handles: 0
EventAccount        DEBUG output handles: 0
EventAccount        DEBUG Data Deps for EventAccount
HistogramPersis...WARNING Histograms saving not required.
ApplicationMgr       INFO Application Manager Initialized successfully
ApplicationMgr       INFO Application Manager Started successfully
EventSelector        INFO End of event input reached.
EventLoopMgr         INFO No more events in event selection
ApplicationMgr       INFO Application Manager Stopped successfully
LumiFilter          DEBUG Finalize base class GaudiAlgorithm
LumiFilter          DEBUG Tools to release :
LumiFilter          DEBUG Services to release :
LumiCountNoBeam     DEBUG ==> Finalize
LumiCountNoBeam      INFO number of files seen: 0
LumiCountNoBeam   VERBOSE FSR: {  runs :  files :  info (key/incr/integral) :  }
LumiCountNoBeam      INFO INTEGRAL: {  runs :  files :  info (key/incr/integral) :  }
LumiCountNoBeam     DEBUG The object of type 'KeyedContainer<LHCb::LumiFSR,Containers::KeyedObjectManager<Containers::hashmap> >*' has been retrieved from TS at address '/FileRecords/LumiFSRNoBeam'
LumiCountNoBeam     DEBUG READ FSR: {  runs :  files :  info (key/incr/integral) :  }
LumiCountNoBeam     DEBUG Finalize base class GaudiAlgorithm
LumiCountNoBeam     DEBUG Tools to release :
LumiCountNoBeam     DEBUG Services to release : UpdateManagerSvc
LumiCountNoBeam     DEBUG Releasing service 'UpdateManagerSvc'
LumiCountBeamCr...  DEBUG ==> Finalize
LumiCountBeamCr...   INFO number of files seen: 0
LumiCountBeamCr...VERBOSE FSR: {  runs :  files :  info (key/incr/integral) :  }
LumiCountBeamCr...   INFO INTEGRAL: {  runs :  files :  info (key/incr/integral) :  }
LumiCountBeamCr...  DEBUG The object of type 'KeyedContainer<LHCb::LumiFSR,Containers::KeyedObjectManager<Containers::hashmap> >*' has been retrieved from TS at address '/FileRecords/LumiFSRBeamCrossing'
LumiCountBeamCr...  DEBUG READ FSR: {  runs :  files :  info (key/incr/integral) :  }
LumiCountBeamCr...  DEBUG Finalize base class GaudiAlgorithm
LumiCountBeamCr...  DEBUG Tools to release :
LumiCountBeamCr...  DEBUG Services to release : UpdateManagerSvc
LumiCountBeamCr...  DEBUG Releasing service 'UpdateManagerSvc'
FillingBeam1        DEBUG Finalize base class GaudiAlgorithm
FillingBeam1        DEBUG Tools to release :
FillingBeam1        DEBUG Services to release : UpdateManagerSvc
FillingBeam1        DEBUG Releasing service 'UpdateManagerSvc'
LumiCountBeam1      DEBUG ==> Finalize
LumiCountBeam1       INFO number of files seen: 0
LumiCountBeam1    VERBOSE FSR: {  runs :  files :  info (key/incr/integral) :  }
LumiCountBeam1       INFO INTEGRAL: {  runs :  files :  info (key/incr/integral) :  }
LumiCountBeam1      DEBUG The object of type 'KeyedContainer<LHCb::LumiFSR,Containers::KeyedObjectManager<Containers::hashmap> >*' has been retrieved from TS at address '/FileRecords/LumiFSRBeam1'
LumiCountBeam1      DEBUG READ FSR: {  runs :  files :  info (key/incr/integral) :  }
LumiCountBeam1      DEBUG Finalize base class GaudiAlgorithm
LumiCountBeam1      DEBUG Tools to release :
LumiCountBeam1      DEBUG Services to release : UpdateManagerSvc
LumiCountBeam1      DEBUG Releasing service 'UpdateManagerSvc'
FillingBeam2        DEBUG Finalize base class GaudiAlgorithm
FillingBeam2        DEBUG Tools to release :
FillingBeam2        DEBUG Services to release : UpdateManagerSvc
FillingBeam2        DEBUG Releasing service 'UpdateManagerSvc'
LumiCountBeam2      DEBUG ==> Finalize
LumiCountBeam2       INFO number of files seen: 0
LumiCountBeam2    VERBOSE FSR: {  runs :  files :  info (key/incr/integral) :  }
LumiCountBeam2       INFO INTEGRAL: {  runs :  files :  info (key/incr/integral) :  }
LumiCountBeam2      DEBUG The object of type 'KeyedContainer<LHCb::LumiFSR,Containers::KeyedObjectManager<Containers::hashmap> >*' has been retrieved from TS at address '/FileRecords/LumiFSRBeam2'
LumiCountBeam2      DEBUG READ FSR: {  runs :  files :  info (key/incr/integral) :  }
LumiCountBeam2      DEBUG Finalize base class GaudiAlgorithm
LumiCountBeam2      DEBUG Tools to release :
LumiCountBeam2      DEBUG Services to release : UpdateManagerSvc
LumiCountBeam2      DEBUG Releasing service 'UpdateManagerSvc'
TimeSpanAccounting  DEBUG ==> Finalize
TimeSpanAccounting   INFO number of files seen: 0
TimeSpanAccounting   INFO FSR: {  earliest : 0 - latest : 0 }
TimeSpanAccounting  DEBUG The object of type 'KeyedContainer<LHCb::TimeSpanFSR,Containers::KeyedObjectManager<Containers::hashmap> >*' has been retrieved from TS at address '/FileRecords/TimeSpanFSR'
TimeSpanAccounting  DEBUG READ FSR: {  earliest : 0 - latest : 0 }
TimeSpanAccounting  DEBUG Finalize base class GaudiAlgorithm
TimeSpanAccounting  DEBUG Tools to release :
TimeSpanAccounting  DEBUG Services to release :
EventAccount        DEBUG ==> Finalize
EventAccount         INFO Overriding status: UNRELIABLE with: VERIFIED
EventAccount        DEBUG number of output files seen: 0
EventAccount        DEBUG FSR: {  input : 0 output : 0 statusFlag : VERIFIED }
EventAccount        DEBUG The object of type 'LHCb::EventCountFSR*' has been retrieved from TS at address '/FileRecords/EventCountFSR'
EventAccount        DEBUG READ FSR: {  input : 0 output : 0 statusFlag : VERIFIED }
EventAccount        DEBUG Finalize base class GaudiAlgorithm
EventAccount        DEBUG Tools to release :
EventAccount        DEBUG Services to release :
EventLoopMgr         INFO Histograms converted successfully according to request.
ToolSvc              INFO Removing all tools created by ToolSvc
ToolSvc.HltFactorySUCCESS Number of counters : 1
 |    Counter                                      |     #     |    sum     | mean/eff^* | rms/err^*  |     min     |     max     |
 | "# loaded from PYTHON"                          |         5 |          5 |     1.0000 |     0.0000 |      1.0000 |      1.0000 |
ToolSvc.Sequenc...   INFO --------------------------------------------------------------------------------------------------
ToolSvc.Sequenc...   INFO This machine has a speed about   2.86 times the speed of a 2.8 GHz Xeon.
ToolSvc.Sequenc...   INFO Algorithm          (millisec) |    <user> |   <clock> |      min       max    sigma | entries | total (s) |
ToolSvc.Sequenc...   INFO --------------------------------------------------------------------------------------------------
ToolSvc.Sequenc...   INFO --------------------------------------------------------------------------------------------------
ApplicationMgr       INFO Application Manager Finalized successfully
ApplicationMgr       INFO Application Manager Terminated successfully
